%YAML 1.1
%TAG !u! tag:unity3d.com,2011:
--- !u!1045 &1
EditorBuildSettings:
  m_ObjectHideFlags: 0
  serializedVersion: 2
  m_Scenes: []
  m_configObjects:
    com.unity.xr.management.loader_settings: {fileID: 11400000, guid: c1640dd778d3e844797862a9620fb060, type: 2}
    com.unity.xr.openxr.settings4: {fileID: 11400000, guid: 7b4fbcb45ff3c344eb278be654c65501, type: 2}
